%YAML 1.1
%TAG !u! tag:unity3d.com,2011:
--- !u!74 &7400000
AnimationClip:
  m_ObjectHideFlags: 0
  m_CorrespondingSourceObject: {fileID: 0}
  m_PrefabInstance: {fileID: 0}
  m_PrefabAsset: {fileID: 0}
  m_Name: ingame_ResultSuccessBubble
  serializedVersion: 6
  m_Legacy: 0
  m_Compressed: 0
  m_UseHighQualityCurve: 1
  m_RotationCurves: []
  m_CompressedRotationCurves: []
  m_EulerCurves: []
  m_PositionCurves: []
  m_ScaleCurves:
  - curve:
      serializedVersion: 2
      m_Curve:
      - serializedVersion: 3
        time: 0
        value: {x: 1, y: 1, z: 1}
        inSlope: {x: 0.21696898, y: 0.21696898, z: 0}
        outSlope: {x: 0.21696898, y: 0.21696898, z: 0}
        tangentMode: 0
        weightedMode: 0
        inWeight: {x: 0.33333334, y: 0.33333334, z: 0.33333334}
        outWeight: {x: 0.14900984, y: 0.14900984, z: 0.33333334}
      - serializedVersion: 3
        time: 0.5
        value: {x: 1.0330597, y: 1.0330597, z: 1}
        inSlope: {x: -0.084297575, y: -0.084297575, z: 0}
        outSlope: {x: -0.084297575, y: -0.084297575, z: 0}
        tangentMode: 0
        weightedMode: 0
        inWeight: {x: 0.33333334, y: 0.33333334, z: 0.33333334}
        outWeight: {x: 0.19273996, y: 0.19273996, z: 0.33333334}
      - serializedVersion: 3
        time: 0.8333333
        value: {x: 0.97587293, y: 0.97587293, z: 1}
        inSlope: {x: -0.17794204, y: -0.17794204, z: 0}
        outSlope: {x: -0.17794204, y: -0.17794204, z: 0}
        tangentMode: 0
        weightedMode: 0
        inWeight: {x: 0.33333334, y: 0.33333334, z: 0.33333334}
        outWeight: {x: 0.33333334, y: 0.33333334, z: 0.33333334}
      - serializedVersion: 3
        time: 1
        value: {x: 0.9557943, y: 0.9557943, z: 1}
        inSlope: {x: -0.042782042, y: -0.042782042, z: 0}
        outSlope: {x: -0.042782042, y: -0.042782042, z: 0}
        tangentMode: 0
        weightedMode: 0
        inWeight: {x: 0.33333334, y: 0.33333334, z: 0.33333334}
        outWeight: {x: 0.21592069, y: 0.21592069, z: 0.33333334}
      - serializedVersion: 3
        time: 1.5
        value: {x: 0.9999721, y: 0.9999721, z: 1}
        inSlope: {x: 0.19211853, y: 0.19211853, z: 0}
        outSlope: {x: 0.19211853, y: 0.19211853, z: 0}
        tangentMode: 0
        weightedMode: 0
        inWeight: {x: 0.15919948, y: 0.15919948, z: 0.33333334}
        outWeight: {x: 0.33333334, y: 0.33333334, z: 0.33333334}
      m_PreInfinity: 2
      m_PostInfinity: 2
      m_RotationOrder: 4
    path: btn_Ad/Bubble
  m_FloatCurves: []
  m_PPtrCurves: []
  m_SampleRate: 60
  m_WrapMode: 0
  m_Bounds:
    m_Center: {x: 0, y: 0, z: 0}
    m_Extent: {x: 0, y: 0, z: 0}
  m_ClipBindingConstant:
    genericBindings:
    - serializedVersion: 2
      path: 4124661493
      attribute: 3
      script: {fileID: 0}
      typeID: 4
      customType: 0
      isPPtrCurve: 0
    pptrCurveMapping: []
  m_AnimationClipSettings:
    serializedVersion: 2
    m_AdditiveReferencePoseClip: {fileID: 0}
    m_AdditiveReferencePoseTime: 0
    m_StartTime: 0
    m_StopTime: 1.5
    m_OrientationOffsetY: 0
    m_Level: 0
    m_CycleOffset: 0
    m_HasAdditiveReferencePose: 0
    m_LoopTime: 1
    m_LoopBlend: 0
    m_LoopBlendOrientation: 0
    m_LoopBlendPositionY: 0
    m_LoopBlendPositionXZ: 0
    m_KeepOriginalOrientation: 0
    m_KeepOriginalPositionY: 1
    m_KeepOriginalPositionXZ: 0
    m_HeightFromFeet: 0
    m_Mirror: 0
  m_EditorCurves:
  - curve:
      serializedVersion: 2
      m_Curve:
      - serializedVersion: 3
        time: 0
        value: 1
        inSlope: 0.21696898
        outSlope: 0.21696898
        tangentMode: 0
        weightedMode: 0
        inWeight: 0.33333334
        outWeight: 0.14900984
      - serializedVersion: 3
        time: 0.5
        value: 1.0330597
        inSlope: -0.084297575
        outSlope: -0.084297575
        tangentMode: 0
        weightedMode: 0
        inWeight: 0.33333334
        outWeight: 0.19273996
      - serializedVersion: 3
        time: 1
        value: 0.9557943
        inSlope: -0.042782042
        outSlope: -0.042782042
        tangentMode: 0
        weightedMode: 0
        inWeight: 0.33333334
        outWeight: 0.21592069
      - serializedVersion: 3
        time: 1.5
        value: 0.9999721
        inSlope: 0.19211853
        outSlope: 0.19211853
        tangentMode: 0
        weightedMode: 0
        inWeight: 0.15919948
        outWeight: 0.33333334
      m_PreInfinity: 2
      m_PostInfinity: 2
      m_RotationOrder: 4
    attribute: m_LocalScale.x
    path: btn_Ad/Bubble
    classID: 224
    script: {fileID: 0}
  - curve:
      serializedVersion: 2
      m_Curve:
      - serializedVersion: 3
        time: 0
        value: 1
        inSlope: 0.21696898
        outSlope: 0.21696898
        tangentMode: 0
        weightedMode: 0
        inWeight: 0.33333334
        outWeight: 0.14900984
      - serializedVersion: 3
        time: 0.5
        value: 1.0330597
        inSlope: -0.084297575
        outSlope: -0.084297575
        tangentMode: 0
        weightedMode: 0
        inWeight: 0.33333334
        outWeight: 0.19273996
      - serializedVersion: 3
        time: 1
        value: 0.9557943
        inSlope: -0.042782042
        outSlope: -0.042782042
        tangentMode: 0
        weightedMode: 0
        inWeight: 0.33333334
        outWeight: 0.21592069
      - serializedVersion: 3
        time: 1.5
        value: 0.9999721
        inSlope: 0.19211853
        outSlope: 0.19211853
        tangentMode: 0
        weightedMode: 0
        inWeight: 0.15919948
        outWeight: 0.33333334
      m_PreInfinity: 2
      m_PostInfinity: 2
      m_RotationOrder: 4
    attribute: m_LocalScale.y
    path: btn_Ad/Bubble
    classID: 224
    script: {fileID: 0}
  - curve:
      serializedVersion: 2
      m_Curve:
      - serializedVersion: 3
        time: 0
        value: 1
        inSlope: 0
        outSlope: 0
        tangentMode: 136
        weightedMode: 0
        inWeight: 0.33333334
        outWeight: 0.33333334
      - serializedVersion: 3
        time: 0.8333333
        value: 1
        inSlope: 0
        outSlope: 0
        tangentMode: 136
        weightedMode: 0
        inWeight: 0.33333334
        outWeight: 0.33333334
      - serializedVersion: 3
        time: 1.5
        value: 1
        inSlope: 0
        outSlope: 0
        tangentMode: 136
        weightedMode: 0
        inWeight: 0.33333334
        outWeight: 0.33333334
      m_PreInfinity: 2
      m_PostInfinity: 2
      m_RotationOrder: 4
    attribute: m_LocalScale.z
    path: btn_Ad/Bubble
    classID: 224
    script: {fileID: 0}
  m_EulerEditorCurves: []
  m_HasGenericRootTransform: 0
  m_HasMotionFloatCurves: 0
  m_Events: []
