%YAML 1.1
%TAG !u! tag:unity3d.com,2011:
--- !u!221 &22100000
AnimatorOverrideController:
  m_ObjectHideFlags: 0
  m_CorrespondingSourceObject: {fileID: 0}
  m_PrefabInstance: {fileID: 0}
  m_PrefabAsset: {fileID: 0}
  m_Name: Ingame_Main
  m_Controller: {fileID: 9100000, guid: e9b1757a03b3d4448815b446587f7444, type: 2}
  m_Clips:
  - m_OriginalClip: {fileID: 7400000, guid: 556150966e2e643bca8ea41a39803cf0, type: 2}
    m_OverrideClip: {fileID: 7400000, guid: 0b66d3bccf8b8524ba69c4c12e73ae39, type: 2}
  - m_OriginalClip: {fileID: 7400000, guid: 22002413e363346c4a5a69cccbd0053e, type: 2}
    m_OverrideClip: {fileID: 7400000, guid: 5e9f86542d700ee4ebab95a28abbbe00, type: 2}
  - m_OriginalClip: {fileID: 7400000, guid: 3070f4f3c8bc149f08abff09620fe8c6, type: 2}
    m_OverrideClip: {fileID: 7400000, guid: e8a82bc5dd16f35428d4758328411c43, type: 2}
