%YAML 1.1
%TAG !u! tag:unity3d.com,2011:
--- !u!74 &7400000
AnimationClip:
  m_ObjectHideFlags: 0
  m_CorrespondingSourceObject: {fileID: 0}
  m_PrefabInstance: {fileID: 0}
  m_PrefabAsset: {fileID: 0}
  m_Name: Ingame_Pre
  serializedVersion: 6
  m_Legacy: 0
  m_Compressed: 0
  m_UseHighQualityCurve: 1
  m_RotationCurves: []
  m_CompressedRotationCurves: []
  m_EulerCurves: []
  m_PositionCurves: []
  m_ScaleCurves: []
  m_FloatCurves:
  - curve:
      serializedVersion: 2
      m_Curve:
      - serializedVersion: 3
        time: 0
        value: 0
        inSlope: 0
        outSlope: 0
        tangentMode: 136
        weightedMode: 0
        inWeight: 0.33333334
        outWeight: 0.33333334
      - serializedVersion: 3
        time: 0.5833333
        value: 0
        inSlope: 0
        outSlope: 0
        tangentMode: 136
        weightedMode: 0
        inWeight: 0.33333334
        outWeight: 0.33333334
      - serializedVersion: 3
        time: 1.9166666
        value: 0
        inSlope: 0
        outSlope: 0
        tangentMode: 136
        weightedMode: 0
        inWeight: 0.33333334
        outWeight: 0.33333334
      m_PreInfinity: 2
      m_PostInfinity: 2
      m_RotationOrder: 4
    attribute: m_AnchoredPosition.x
    path: Goal
    classID: 224
    script: {fileID: 0}
  - curve:
      serializedVersion: 2
      m_Curve:
      - serializedVersion: 3
        time: 0
        value: 1800
        inSlope: -4957.25
        outSlope: -4957.25
        tangentMode: 0
        weightedMode: 0
        inWeight: 0.33333334
        outWeight: 0.036989387
      - serializedVersion: 3
        time: 0.6666667
        value: -0.34939814
        inSlope: 411.37958
        outSlope: 220.34544
        tangentMode: 1
        weightedMode: 0
        inWeight: 0.23265874
        outWeight: 0.45861816
      - serializedVersion: 3
        time: 0.9166667
        value: 0.30956718
        inSlope: 16.813145
        outSlope: -15.411046
        tangentMode: 1
        weightedMode: 0
        inWeight: 0.40667367
        outWeight: 0.443673
      - serializedVersion: 3
        time: 1.5
        value: -0.0044335127
        inSlope: -3.8591743
        outSlope: -3.8591743
        tangentMode: 0
        weightedMode: 0
        inWeight: 0.3169454
        outWeight: 0.030701492
      - serializedVersion: 3
        time: 2.4166667
        value: -1800
        inSlope: -6071.478
        outSlope: -6071.478
        tangentMode: 0
        weightedMode: 0
        inWeight: 0.02760237
        outWeight: 0.33333334
      m_PreInfinity: 2
      m_PostInfinity: 2
      m_RotationOrder: 4
    attribute: m_AnchoredPosition.y
    path: Goal
    classID: 224
    script: {fileID: 0}
  m_PPtrCurves: []
  m_SampleRate: 60
  m_WrapMode: 0
  m_Bounds:
    m_Center: {x: 0, y: 0, z: 0}
    m_Extent: {x: 0, y: 0, z: 0}
  m_ClipBindingConstant:
    genericBindings:
    - serializedVersion: 2
      path: 1559118864
      attribute: 538195251
      script: {fileID: 0}
      typeID: 224
      customType: 28
      isPPtrCurve: 0
    - serializedVersion: 2
      path: 1559118864
      attribute: 1460864421
      script: {fileID: 0}
      typeID: 224
      customType: 28
      isPPtrCurve: 0
    pptrCurveMapping: []
  m_AnimationClipSettings:
    serializedVersion: 2
    m_AdditiveReferencePoseClip: {fileID: 0}
    m_AdditiveReferencePoseTime: 0
    m_StartTime: 0
    m_StopTime: 2.4166667
    m_OrientationOffsetY: 0
    m_Level: 0
    m_CycleOffset: 0
    m_HasAdditiveReferencePose: 0
    m_LoopTime: 0
    m_LoopBlend: 0
    m_LoopBlendOrientation: 0
    m_LoopBlendPositionY: 0
    m_LoopBlendPositionXZ: 0
    m_KeepOriginalOrientation: 0
    m_KeepOriginalPositionY: 1
    m_KeepOriginalPositionXZ: 0
    m_HeightFromFeet: 0
    m_Mirror: 0
  m_EditorCurves:
  - curve:
      serializedVersion: 2
      m_Curve:
      - serializedVersion: 3
        time: 0
        value: 0
        inSlope: 0
        outSlope: 0
        tangentMode: 136
        weightedMode: 0
        inWeight: 0.33333334
        outWeight: 0.33333334
      - serializedVersion: 3
        time: 0.5833333
        value: 0
        inSlope: 0
        outSlope: 0
        tangentMode: 136
        weightedMode: 0
        inWeight: 0.33333334
        outWeight: 0.33333334
      - serializedVersion: 3
        time: 1.9166666
        value: 0
        inSlope: 0
        outSlope: 0
        tangentMode: 136
        weightedMode: 0
        inWeight: 0.33333334
        outWeight: 0.33333334
      m_PreInfinity: 2
      m_PostInfinity: 2
      m_RotationOrder: 4
    attribute: m_AnchoredPosition.x
    path: Goal
    classID: 224
    script: {fileID: 0}
  - curve:
      serializedVersion: 2
      m_Curve:
      - serializedVersion: 3
        time: 0
        value: 1800
        inSlope: -4957.25
        outSlope: -4957.25
        tangentMode: 0
        weightedMode: 0
        inWeight: 0.33333334
        outWeight: 0.036989387
      - serializedVersion: 3
        time: 0.6666667
        value: -0.34939814
        inSlope: 411.37958
        outSlope: 220.34544
        tangentMode: 1
        weightedMode: 0
        inWeight: 0.23265874
        outWeight: 0.45861816
      - serializedVersion: 3
        time: 0.9166667
        value: 0.30956718
        inSlope: 16.813145
        outSlope: -15.411046
        tangentMode: 1
        weightedMode: 0
        inWeight: 0.40667367
        outWeight: 0.443673
      - serializedVersion: 3
        time: 1.5
        value: -0.0044335127
        inSlope: -3.8591743
        outSlope: -3.8591743
        tangentMode: 0
        weightedMode: 0
        inWeight: 0.3169454
        outWeight: 0.030701492
      - serializedVersion: 3
        time: 2.4166667
        value: -1800
        inSlope: -6071.478
        outSlope: -6071.478
        tangentMode: 0
        weightedMode: 0
        inWeight: 0.02760237
        outWeight: 0.33333334
      m_PreInfinity: 2
      m_PostInfinity: 2
      m_RotationOrder: 4
    attribute: m_AnchoredPosition.y
    path: Goal
    classID: 224
    script: {fileID: 0}
  m_EulerEditorCurves: []
  m_HasGenericRootTransform: 0
  m_HasMotionFloatCurves: 0
  m_Events:
  - time: 0.016666668
    functionName: OnEventEnterSound
    data: 
    objectReferenceParameter: {fileID: 0}
    floatParameter: 0
    intParameter: 0
    messageOptions: 0
