%YAML 1.1
%TAG !u! tag:unity3d.com,2011:
--- !u!114 &11400000
MonoBehaviour:
  m_ObjectHideFlags: 0
  m_CorrespondingSourceObject: {fileID: 0}
  m_PrefabInstance: {fileID: 0}
  m_PrefabAsset: {fileID: 0}
  m_GameObject: {fileID: 0}
  m_Enabled: 1
  m_EditorHideFlags: 0
  m_Script: {fileID: 11500000, guid: a6b194f808b1af6499c93410e504af42, type: 3}
  m_Name: Block_Bomb_5_Curve_01_Atlas
  m_EditorClassIdentifier: 
  atlasFile: {fileID: 4900000, guid: bcee22b2838d2c541ab1dad52e21792d, type: 3}
  materials:
  - {fileID: 2100000, guid: 9c0b1c540e5b8e542a2a3b31d480a5ba, type: 2}
