%YAML 1.1
%TAG !u! tag:unity3d.com,2011:
--- !u!114 &11400000
MonoBehaviour:
  m_ObjectHideFlags: 0
  m_CorrespondingSourceObject: {fileID: 0}
  m_PrefabInstance: {fileID: 0}
  m_PrefabAsset: {fileID: 0}
  m_GameObject: {fileID: 0}
  m_Enabled: 1
  m_EditorHideFlags: 0
  m_Script: {fileID: 11500000, guid: faf31d8355786f442a30357e93d9aa1c, type: 3}
  m_Name: RealFire2
  m_EditorClassIdentifier: 
  fireName: Real Fire 2
  firePos: 0
  fires:
  - {fileID: 502270404042534137, guid: cb242ce277edd9c4eafb48f7fc0b515f, type: 3}
  - {fileID: 3054932868508086405, guid: 31838461fd4c4c44c9d239bfcc74418a, type: 3}
  - {fileID: 1816390327905734218, guid: 919ec26ff881f4044a7305f87c43314d, type: 3}
  - {fileID: 1673725595190499661, guid: c68216639950f8046a6cf38aee017f7d, type: 3}
