%YAML 1.1
%TAG !u! tag:unity3d.com,2011:
--- !u!1 &7407547410903472812
GameObject:
  m_ObjectHideFlags: 0
  m_CorrespondingSourceObject: {fileID: 0}
  m_PrefabInstance: {fileID: 0}
  m_PrefabAsset: {fileID: 0}
  serializedVersion: 6
  m_Component:
  - component: {fileID: 3044072755988046819}
  - component: {fileID: 1907654332750962971}
  m_Layer: 0
  m_Name: Animal_Rescue_Particle
  m_TagString: Untagged
  m_Icon: {fileID: 0}
  m_NavMeshLayer: 0
  m_StaticEditorFlags: 0
  m_IsActive: 1
--- !u!4 &3044072755988046819
Transform:
  m_ObjectHideFlags: 0
  m_CorrespondingSourceObject: {fileID: 0}
  m_PrefabInstance: {fileID: 0}
  m_PrefabAsset: {fileID: 0}
  m_GameObject: {fileID: 7407547410903472812}
  m_LocalRotation: {x: 0, y: 0, z: 0, w: 1}
  m_LocalPosition: {x: 0, y: 0, z: 0}
  m_LocalScale: {x: 1, y: 1, z: 1}
  m_Children:
  - {fileID: 6804029177733623382}
  m_Father: {fileID: 0}
  m_RootOrder: 0
  m_LocalEulerAnglesHint: {x: 0, y: 0, z: 0}
--- !u!114 &1907654332750962971
MonoBehaviour:
  m_ObjectHideFlags: 0
  m_CorrespondingSourceObject: {fileID: 0}
  m_PrefabInstance: {fileID: 0}
  m_PrefabAsset: {fileID: 0}
  m_GameObject: {fileID: 7407547410903472812}
  m_Enabled: 1
  m_EditorHideFlags: 0
  m_Script: {fileID: 11500000, guid: e2582fe4f136b44358827220570d0699, type: 3}
  m_Name: 
  m_EditorClassIdentifier: 
  DestroyType: 0
  Duration: 0
--- !u!1001 &7915801115499568546
PrefabInstance:
  m_ObjectHideFlags: 0
  serializedVersion: 2
  m_Modification:
    m_TransformParent: {fileID: 3044072755988046819}
    m_Modifications:
    - target: {fileID: 3726261743438705652, guid: c598278e01e00904f9eb6685384cf13d,
        type: 3}
      propertyPath: m_LocalPosition.x
      value: 0
      objectReference: {fileID: 0}
    - target: {fileID: 3726261743438705652, guid: c598278e01e00904f9eb6685384cf13d,
        type: 3}
      propertyPath: m_LocalPosition.y
      value: 0
      objectReference: {fileID: 0}
    - target: {fileID: 3726261743438705652, guid: c598278e01e00904f9eb6685384cf13d,
        type: 3}
      propertyPath: m_LocalPosition.z
      value: 0
      objectReference: {fileID: 0}
    - target: {fileID: 3726261743438705652, guid: c598278e01e00904f9eb6685384cf13d,
        type: 3}
      propertyPath: m_LocalRotation.x
      value: -0.7071068
      objectReference: {fileID: 0}
    - target: {fileID: 3726261743438705652, guid: c598278e01e00904f9eb6685384cf13d,
        type: 3}
      propertyPath: m_LocalRotation.y
      value: 0
      objectReference: {fileID: 0}
    - target: {fileID: 3726261743438705652, guid: c598278e01e00904f9eb6685384cf13d,
        type: 3}
      propertyPath: m_LocalRotation.z
      value: 0
      objectReference: {fileID: 0}
    - target: {fileID: 3726261743438705652, guid: c598278e01e00904f9eb6685384cf13d,
        type: 3}
      propertyPath: m_LocalRotation.w
      value: 0.7071068
      objectReference: {fileID: 0}
    - target: {fileID: 3726261743438705652, guid: c598278e01e00904f9eb6685384cf13d,
        type: 3}
      propertyPath: m_RootOrder
      value: 0
      objectReference: {fileID: 0}
    - target: {fileID: 3726261743438705652, guid: c598278e01e00904f9eb6685384cf13d,
        type: 3}
      propertyPath: m_LocalEulerAnglesHint.x
      value: -90
      objectReference: {fileID: 0}
    - target: {fileID: 3726261743438705652, guid: c598278e01e00904f9eb6685384cf13d,
        type: 3}
      propertyPath: m_LocalEulerAnglesHint.y
      value: 0
      objectReference: {fileID: 0}
    - target: {fileID: 3726261743438705652, guid: c598278e01e00904f9eb6685384cf13d,
        type: 3}
      propertyPath: m_LocalEulerAnglesHint.z
      value: 0
      objectReference: {fileID: 0}
    - target: {fileID: 3726261743438870048, guid: c598278e01e00904f9eb6685384cf13d,
        type: 3}
      propertyPath: m_Name
      value: HeartSpawn
      objectReference: {fileID: 0}
    m_RemovedComponents: []
  m_SourcePrefab: {fileID: 100100000, guid: c598278e01e00904f9eb6685384cf13d, type: 3}
--- !u!4 &6804029177733623382 stripped
Transform:
  m_CorrespondingSourceObject: {fileID: 3726261743438705652, guid: c598278e01e00904f9eb6685384cf13d,
    type: 3}
  m_PrefabInstance: {fileID: 7915801115499568546}
  m_PrefabAsset: {fileID: 0}
