%YAML 1.1
%TAG !u! tag:unity3d.com,2011:
--- !u!114 &11400000
MonoBehaviour:
  m_ObjectHideFlags: 0
  m_CorrespondingSourceObject: {fileID: 0}
  m_PrefabInstance: {fileID: 0}
  m_PrefabAsset: {fileID: 0}
  m_GameObject: {fileID: 0}
  m_Enabled: 1
  m_EditorHideFlags: 0
  m_Script: {fileID: 11500000, guid: f1b3b4b945939a54ea0b23d3396115fb, type: 3}
  m_Name: seal_SkeletonData
  m_EditorClassIdentifier: 
  atlasAssets:
  - {fileID: 11400000, guid: ddb85b9916713e74a979f47f2161b151, type: 2}
  scale: 0.01
  skeletonJSON: {fileID: 4900000, guid: 57de97b75b3bc8c4b862a3d3a7707daf, type: 3}
  skeletonDataModifiers: []
  fromAnimation: []
  toAnimation: []
  duration: []
  defaultMix: 0.2
  controller: {fileID: 0}
