{
  "project_info": {
    "project_number": "364596240683",
    "project_id": "rescue-wild",
    "storage_bucket": "rescue-wild.appspot.com"
  },
  "client": [
    {
      "client_info": {
        "mobilesdk_app_id": "1:364596240683:android:1d144267cbfcd44f38e56e",
        "android_client_info": {
          "package_name": "com.spcomes.mgrw"
        }
      },
      "oauth_client": [
        {
          "client_id": "364596240683-n9p1sofsdd7aobu03214r8gtqurjgr1n.apps.googleusercontent.com",
          "client_type": 3
        }
      ],
      "api_key": [
        {
          "current_key": "AIzaSyDMTUFhRw5AaSxJBDHuwgIzk4Wp2zfthNk"
        }
      ],
      "services": {
        "appinvite_service": {
          "other_platform_oauth_client": [
            {
              "client_id": "364596240683-n9p1sofsdd7aobu03214r8gtqurjgr1n.apps.googleusercontent.com",
              "client_type": 3
            }
          ]
        }
      }
    }
  ],
  "configuration_version": "1"
}