{ "columns":8,
 "image":"..\/..\/..\/..\/..\/..\/..\/..\/mustg\/gaus\/DEV\/work\/puzzle_stage_design\/Pictures\/tileset_wall2.png",
 "imageheight":199,
 "imagewidth":265,
 "margin":1,
 "name":"wall2",
 "spacing":1,
 "tilecount":48,
 "tiledversion":"1.3.2",
 "tileheight":32,
 "tilewidth":32,
 "type":"tileset",
 "version":1.2
}