%YAML 1.1
%TAG !u! tag:unity3d.com,2011:
--- !u!1045 &1
EditorBuildSettings:
  m_ObjectHideFlags: 0
  serializedVersion: 2
  m_Scenes:
  - enabled: 1
    path: Assets/CBnB/Scenes/Logo.unity
    guid: ef9c5f5ec59a74e45a814b4dcf4391aa
  - enabled: 1
    path: Assets/CBnB/Scenes/Loading.unity
    guid: 2094c12d950314d73925bc5b30072d03
  - enabled: 1
    path: Assets/CBnB/Scenes/Lobby.unity
    guid: a4f2c8c758e249a4bb6d2f24f35dea52
  - enabled: 1
    path: Assets/CBnB/Scenes/InGame.unity
    guid: 2cda990e2423bbf4892e6590ba056729
  m_configObjects: {}
