%YAML 1.1
%TAG !u! tag:unity3d.com,2011:
--- !u!114 &11400000
MonoBehaviour:
  m_ObjectHideFlags: 0
  m_CorrespondingSourceObject: {fileID: 0}
  m_PrefabInstance: {fileID: 0}
  m_PrefabAsset: {fileID: 0}
  m_GameObject: {fileID: 0}
  m_Enabled: 1
  m_EditorHideFlags: 0
  m_Script: {fileID: 11500000, guid: a6b194f808b1af6499c93410e504af42, type: 3}
  m_Name: Block_Bomb_4_Square_01_Fire_Down_Atlas
  m_EditorClassIdentifier: 
  atlasFile: {fileID: 4900000, guid: a70ae3b4e3fcf6244a4a06824b4b1248, type: 3}
  materials:
  - {fileID: 2100000, guid: 9d0ce76ac22c6104990614ca7db7f388, type: 2}
