{ "compressionlevel":0,
 "height":11,
 "infinite":false,
 "layers":[
        {
         "data":[0, 0, 0, 0, 0, 0, 0, 0, 0, 0, 0, 0, 0, 0, 12, 12, 12, 12, 12, 12, 12, 12, 12, 12, 1610612749, 0, 0, 12, 12, 12, 12, 12, 12, 12, 12, 12, 1610612749, 20, 0, 0, 0, 0, 28, 28, 28, 28, 28, 28, 28, 20, 20, 0, 0, 0, 0, 12, 28, 28, 28, 28, 28, 28, 20, 20, 0, 0, 0, 0, 12, 12, 28, 0, 12, 28, 28, 20, 20, 0, 0, 0, 0, 12, 12, 12, 12, 12, 12, 28, 20, 20, 0, 0, 0, 0, 12, 12, 12, 12, 12, 12, 12, 0, 0, 0, 0, 0, 2684354573, 28, 28, 28, 28, 28, 28, 28, 28, 28, 0, 0, 2684354573, 28, 28, 28, 28, 28, 28, 28, 28, 28, 28, 0, 0, 0, 0, 0, 0, 0, 0, 0, 0, 0, 0, 0, 0],
         "height":11,
         "id":3,
         "name":"wind",
         "opacity":1,
         "type":"tilelayer",
         "visible":true,
         "width":13,
         "x":0,
         "y":0
        }, 
        {
         "data":[0, 0, 0, 0, 0, 0, 0, 0, 0, 0, 0, 0, 0, 0, 0, 0, 0, 0, 0, 0, 0, 0, 0, 0, 0, 0, 0, 0, 0, 0, 0, 0, 0, 0, 0, 0, 0, 0, 0, 0, 0, 0, 1610612855, 0, 0, 0, 0, 0, 0, 0, 0, 0, 0, 119, 119, 0, 0, 0, 0, 0, 0, 0, 0, 0, 0, 0, 0, 0, 0, 0, 0, 0, 0, 0, 0, 0, 0, 0, 0, 0, 0, 0, 0, 0, 0, 0, 0, 0, 3221225591, 3221225591, 0, 0, 0, 0, 0, 0, 0, 0, 0, 0, 2684354679, 0, 0, 0, 0, 0, 0, 0, 0, 0, 0, 0, 0, 0, 0, 0, 0, 0, 0, 0, 0, 0, 0, 0, 0, 0, 0, 0, 0, 0, 0, 0, 0, 0, 0, 0, 0, 0, 0, 0, 0, 0, 0],
         "height":11,
         "id":9,
         "name":"crt\/clr",
         "opacity":1,
         "type":"tilelayer",
         "visible":true,
         "width":13,
         "x":0,
         "y":0
        }, 
        {
         "data":[0, 0, 0, 0, 0, 0, 0, 0, 0, 0, 0, 0, 0, 0, 0, 0, 0, 0, 0, 0, 0, 0, 0, 0, 0, 0, 0, 0, 0, 0, 0, 0, 0, 0, 0, 0, 0, 0, 0, 0, 0, 0, 0, 0, 0, 0, 0, 0, 0, 0, 0, 0, 0, 0, 0, 0, 0, 0, 0, 0, 0, 0, 0, 0, 0, 0, 0, 0, 0, 0, 0, 0, 0, 0, 0, 0, 0, 0, 0, 0, 0, 0, 0, 0, 0, 0, 0, 0, 0, 0, 0, 0, 0, 0, 0, 0, 0, 0, 0, 0, 0, 0, 0, 0, 0, 0, 0, 0, 0, 0, 0, 0, 0, 0, 0, 0, 0, 0, 0, 0, 0, 0, 0, 0, 0, 0, 0, 0, 0, 0, 0, 0, 0, 0, 0, 0, 0, 0, 0, 0, 0, 0, 0],
         "height":11,
         "id":5,
         "name":"cha",
         "opacity":1,
         "type":"tilelayer",
         "visible":true,
         "width":13,
         "x":0,
         "y":0
        }, 
        {
         "data":[0, 0, 0, 0, 0, 0, 0, 0, 0, 0, 0, 0, 0, 0, 2684354646, 2684354646, 2684354646, 2684354646, 2684354646, 2684354654, 0, 0, 0, 0, 0, 0, 0, 0, 0, 0, 0, 0, 0, 0, 0, 0, 0, 0, 0, 0, 0, 0, 0, 4, 0, 4, 0, 4, 0, 0, 0, 0, 0, 0, 0, 4, 0, 4, 0, 4, 0, 4, 0, 0, 0, 0, 0, 0, 0, 4, 0, 0, 0, 4, 0, 0, 0, 0, 0, 0, 0, 4, 0, 4, 0, 4, 0, 4, 0, 0, 0, 0, 0, 0, 0, 4, 0, 4, 0, 4, 0, 0, 0, 0, 0, 0, 0, 0, 0, 0, 0, 0, 0, 0, 0, 0, 0, 0, 0, 0, 0, 0, 0, 1610612830, 2684354646, 2684354646, 2684354646, 2684354646, 2684354646, 0, 0, 0, 0, 0, 0, 0, 0, 0, 0, 0, 0, 0, 0],
         "height":11,
         "id":6,
         "name":"bottom",
         "opacity":1,
         "type":"tilelayer",
         "visible":true,
         "width":13,
         "x":0,
         "y":0
        }, 
        {
         "data":[0, 0, 0, 0, 0, 0, 0, 0, 0, 0, 0, 0, 0, 0, 0, 0, 0, 0, 0, 0, 0, 0, 0, 0, 0, 0, 0, 0, 0, 0, 0, 0, 1610612830, 2684354646, 2684354646, 2684354646, 62, 0, 0, 0, 0, 0, 0, 0, 0, 0, 0, 0, 0, 86, 0, 0, 0, 0, 86, 0, 0, 0, 0, 0, 0, 0, 86, 0, 0, 0, 0, 86, 0, 0, 0, 0, 0, 0, 0, 86, 0, 0, 0, 0, 86, 0, 0, 0, 0, 0, 0, 0, 86, 0, 0, 0, 0, 86, 0, 0, 0, 0, 0, 0, 0, 0, 0, 0, 0, 0, 3221225534, 2684354646, 2684354646, 2684354646, 2684354654, 0, 0, 0, 0, 0, 0, 0, 0, 0, 0, 0, 0, 0, 0, 0, 0, 0, 0, 0, 0, 0, 0, 0, 0, 0, 0, 0, 0, 0, 0, 0, 0],
         "height":11,
         "id":8,
         "name":"pass",
         "opacity":1,
         "type":"tilelayer",
         "visible":true,
         "width":13,
         "x":0,
         "y":0
        }, 
        {
         "data":[0, 0, 0, 0, 0, 0, 0, 0, 0, 0, 0, 0, 0, 0, 0, 0, 0, 0, 0, 0, 0, 0, 0, 0, 0, 0, 0, 0, 0, 0, 0, 0, 0, 0, 0, 0, 0, 0, 0, 0, 0, 105, 2684354698, 105, 105, 105, 105, 105, 105, 1610612841, 0, 0, 0, 0, 2684354665, 0, 1610612842, 0, 0, 0, 0, 0, 1610612841, 0, 0, 0, 0, 2684354665, 0, 0, 1610612842, 2684354698, 2684354666, 0, 0, 1610612841, 0, 0, 0, 0, 2684354665, 0, 0, 0, 0, 0, 2684354666, 0, 1610612841, 0, 0, 0, 0, 2684354665, 3221225577, 3221225577, 3221225577, 3221225577, 3221225577, 3221225577, 2684354698, 0, 0, 0, 0, 0, 0, 0, 0, 0, 0, 0, 0, 0, 0, 0, 0, 0, 0, 0, 0, 0, 0, 0, 0, 0, 0, 0, 0, 0, 0, 0, 0, 0, 0, 0, 0, 0, 0, 0, 0, 0, 0],
         "height":11,
         "id":7,
         "name":"wall+",
         "opacity":1,
         "type":"tilelayer",
         "visible":true,
         "width":13,
         "x":0,
         "y":0
        }, 
        {
         "data":[0, 0, 0, 0, 0, 0, 0, 0, 0, 0, 0, 0, 0, 0, 2, 1, 1, 1, 1, 1, 1, 1, 1, 1, 2684354562, 0, 0, 1610612737, 0, 0, 0, 0, 0, 0, 0, 0, 0, 2684354561, 0, 0, 42, 19, 0, 0, 0, 0, 0, 0, 0, 0, 2684354561, 0, 0, 1610612737, 0, 0, 0, 0, 0, 0, 0, 0, 0, 2684354561, 0, 0, 1610612737, 0, 0, 0, 0, 33, 0, 0, 0, 0, 2684354561, 0, 0, 1610612737, 0, 0, 0, 0, 0, 0, 0, 0, 0, 2684354561, 0, 0, 1610612737, 0, 0, 0, 0, 0, 0, 0, 0, 3, 42, 0, 0, 1610612737, 0, 0, 0, 0, 0, 0, 0, 0, 0, 2684354561, 0, 0, 1610612738, 3221225473, 3221225473, 3221225473, 3221225473, 3221225473, 3221225473, 3221225473, 3221225473, 3221225473, 3221225474, 0, 0, 0, 0, 0, 0, 0, 0, 0, 0, 0, 0, 0, 0],
         "height":11,
         "id":2,
         "name":"wall",
         "opacity":1,
         "type":"tilelayer",
         "visible":true,
         "width":13,
         "x":0,
         "y":0
        }, 
        {
         "data":[0, 0, 0, 0, 0, 0, 0, 0, 0, 0, 0, 0, 0, 0, 84, 84, 84, 84, 84, 83, 91, 91, 91, 91, 91, 0, 0, 84, 84, 84, 84, 84, 83, 91, 91, 91, 91, 91, 0, 0, 0, 0, 57, 99, 81, 99, 65, 99, 57, 91, 91, 0, 0, 91, 91, 99, 65, 99, 73, 99, 89, 99, 91, 91, 0, 0, 91, 91, 73, 99, 57, 0, 81, 99, 65, 91, 91, 0, 0, 91, 91, 99, 89, 99, 65, 99, 73, 99, 91, 91, 0, 0, 91, 91, 89, 99, 73, 99, 57, 99, 81, 0, 0, 0, 0, 91, 91, 91, 91, 91, 83, 84, 84, 84, 84, 84, 0, 0, 91, 91, 91, 91, 91, 83, 84, 84, 84, 84, 84, 0, 0, 0, 0, 0, 0, 0, 0, 0, 0, 0, 0, 0, 0],
         "height":11,
         "id":1,
         "name":"block",
         "opacity":1,
         "type":"tilelayer",
         "visible":true,
         "width":13,
         "x":0,
         "y":0
        }, 
        {
         "data":[0, 0, 0, 0, 0, 0, 0, 0, 0, 0, 0, 0, 0, 0, 0, 0, 0, 0, 0, 0, 0, 0, 0, 0, 0, 0, 0, 0, 0, 0, 0, 0, 0, 0, 0, 0, 0, 0, 0, 0, 0, 0, 0, 0, 0, 0, 0, 0, 0, 0, 0, 0, 0, 0, 0, 0, 0, 0, 0, 0, 0, 0, 0, 0, 0, 0, 0, 0, 0, 0, 0, 0, 0, 0, 0, 0, 0, 0, 0, 0, 0, 0, 0, 0, 0, 0, 0, 0, 0, 0, 0, 0, 0, 0, 0, 0, 0, 0, 0, 0, 0, 0, 0, 0, 0, 0, 0, 0, 0, 0, 0, 0, 0, 0, 0, 0, 0, 0, 0, 0, 0, 0, 0, 0, 0, 0, 0, 0, 0, 0, 0, 0, 0, 0, 0, 0, 0, 0, 0, 0, 0, 0, 0],
         "height":11,
         "id":4,
         "name":"cover",
         "opacity":1,
         "type":"tilelayer",
         "visible":true,
         "width":13,
         "x":0,
         "y":0
        }],
 "nextlayerid":10,
 "nextobjectid":1,
 "orientation":"orthogonal",
 "renderorder":"right-down",
 "tiledversion":"1.3.1",
 "tileheight":32,
 "tilesets":[
        {
         "firstgid":1,
         "source":"wall.tsx"
        }, 
        {
         "firstgid":57,
         "source":"block.tsx"
        }, 
        {
         "firstgid":105,
         "source":"wall2.tsx"
        }],
 "tilewidth":32,
 "type":"map",
 "version":1.2,
 "width":13
}