{ "compressionlevel":0,
 "height":11,
 "infinite":false,
 "layers":[
        {
         "data":[0, 0, 0, 0, 0, 0, 0, 0, 0, 0, 0, 0, 0, 0, 0, 0, 0, 0, 0, 0, 0, 0, 0, 0, 0, 0, 0, 0, 0, 0, 0, 0, 0, 0, 0, 0, 0, 0, 0, 0, 0, 0, 0, 0, 0, 0, 0, 0, 0, 0, 0, 0, 0, 0, 0, 0, 0, 0, 0, 0, 0, 0, 0, 0, 0, 0, 0, 0, 0, 0, 0, 0, 0, 0, 0, 0, 0, 0, 0, 0, 0, 0, 0, 0, 0, 0, 0, 0, 0, 0, 0, 0, 0, 0, 0, 0, 0, 0, 0, 0, 0, 0, 0, 0, 0, 0, 0, 0, 0, 0, 0, 0, 0, 0, 0, 0, 0, 0, 0, 0, 0, 0, 0, 0, 0, 0, 0, 0, 0, 0, 0, 0, 0, 0, 0, 0, 0, 0, 0, 0, 0, 0, 0],
         "height":11,
         "id":3,
         "name":"wind",
         "opacity":1,
         "type":"tilelayer",
         "visible":true,
         "width":13,
         "x":0,
         "y":0
        }, 
        {
         "data":[0, 0, 0, 0, 0, 0, 0, 0, 0, 0, 0, 0, 0, 0, 119, 119, 119, 119, 119, 0, 119, 119, 119, 119, 119, 0, 0, 0, 0, 0, 0, 0, 0, 0, 0, 0, 0, 0, 0, 0, 0, 0, 0, 0, 0, 0, 0, 0, 0, 0, 0, 0, 0, 0, 0, 0, 0, 0, 0, 0, 0, 0, 0, 0, 0, 0, 0, 0, 0, 0, 0, 0, 0, 0, 0, 0, 0, 0, 0, 0, 0, 0, 0, 0, 0, 0, 0, 0, 0, 0, 0, 0, 0, 0, 0, 0, 0, 0, 0, 0, 0, 0, 0, 0, 0, 0, 0, 0, 0, 0, 0, 0, 0, 0, 0, 0, 0, 0, 0, 0, 0, 0, 0, 0, 0, 0, 0, 0, 0, 0, 0, 0, 0, 0, 0, 0, 0, 0, 0, 0, 0, 0, 0],
         "height":11,
         "id":9,
         "name":"crt\/clr",
         "opacity":1,
         "type":"tilelayer",
         "visible":true,
         "width":13,
         "x":0,
         "y":0
        }, 
        {
         "data":[0, 0, 0, 0, 0, 0, 0, 0, 0, 0, 0, 0, 0, 0, 0, 63, 64, 0, 0, 0, 0, 0, 0, 0, 0, 0, 0, 0, 71, 72, 0, 0, 0, 0, 0, 2684354655, 2684354647, 2684354639, 0, 0, 79, 80, 0, 0, 0, 0, 0, 0, 2684354656, 2684354648, 2684354640, 0, 0, 87, 88, 0, 0, 0, 0, 0, 0, 0, 63, 64, 0, 0, 95, 96, 0, 79, 80, 0, 63, 64, 0, 71, 72, 0, 0, 0, 0, 0, 87, 88, 0, 71, 72, 0, 79, 80, 0, 0, 63, 64, 0, 95, 96, 0, 79, 80, 0, 87, 88, 0, 0, 71, 72, 0, 0, 63, 64, 87, 88, 0, 95, 96, 0, 0, 0, 0, 0, 0, 71, 72, 95, 96, 0, 0, 0, 0, 0, 0, 0, 0, 0, 0, 0, 0, 0, 0, 0, 0, 0],
         "height":11,
         "id":5,
         "name":"cha",
         "opacity":1,
         "type":"tilelayer",
         "visible":true,
         "width":13,
         "x":0,
         "y":0
        }, 
        {
         "data":[0, 0, 0, 0, 0, 0, 0, 0, 0, 0, 0, 0, 0, 0, 68, 68, 68, 0, 0, 0, 0, 0, 68, 68, 68, 0, 0, 68, 68, 68, 0, 0, 0, 0, 0, 68, 68, 68, 0, 0, 68, 68, 68, 0, 0, 0, 0, 0, 68, 68, 68, 0, 0, 68, 68, 14, 14, 0, 0, 0, 14, 14, 68, 68, 0, 0, 68, 68, 14, 76, 76, 76, 76, 76, 14, 68, 68, 0, 0, 68, 68, 14, 76, 76, 76, 76, 76, 14, 68, 68, 0, 0, 68, 68, 14, 76, 76, 76, 76, 76, 14, 68, 68, 0, 0, 68, 68, 0, 76, 76, 76, 76, 76, 0, 68, 68, 0, 0, 68, 68, 0, 76, 76, 76, 76, 76, 0, 68, 68, 0, 0, 0, 0, 0, 0, 0, 0, 0, 0, 0, 0, 0, 0],
         "height":11,
         "id":6,
         "name":"bottom",
         "opacity":1,
         "type":"tilelayer",
         "visible":true,
         "width":13,
         "x":0,
         "y":0
        }, 
        {
         "data":[0, 0, 0, 0, 0, 0, 0, 0, 0, 0, 0, 0, 0, 0, 0, 0, 0, 0, 0, 0, 0, 0, 0, 0, 0, 0, 0, 0, 0, 0, 0, 0, 0, 0, 0, 0, 0, 0, 0, 0, 0, 0, 0, 0, 0, 0, 0, 0, 0, 0, 0, 0, 0, 0, 0, 0, 0, 0, 0, 0, 0, 0, 0, 0, 0, 0, 0, 0, 0, 0, 0, 0, 0, 0, 0, 0, 0, 0, 0, 0, 0, 0, 0, 0, 0, 0, 0, 0, 0, 0, 0, 0, 0, 0, 0, 0, 0, 0, 0, 0, 0, 0, 0, 0, 0, 0, 0, 0, 0, 0, 0, 0, 0, 0, 0, 0, 0, 0, 0, 0, 0, 0, 0, 0, 0, 0, 0, 0, 0, 0, 0, 0, 0, 0, 0, 0, 0, 0, 0, 0, 0, 0, 0],
         "height":11,
         "id":8,
         "name":"pass",
         "opacity":1,
         "type":"tilelayer",
         "visible":true,
         "width":13,
         "x":0,
         "y":0
        }, 
        {
         "data":[0, 0, 0, 0, 0, 0, 0, 0, 0, 0, 0, 0, 0, 0, 0, 0, 0, 0, 0, 0, 0, 0, 0, 0, 0, 0, 0, 0, 0, 0, 1610612841, 0, 0, 0, 2684354665, 0, 0, 0, 0, 0, 0, 0, 0, 1610612841, 0, 0, 0, 2684354665, 0, 0, 0, 0, 0, 0, 0, 106, 0, 106, 0, 2684354666, 0, 2684354666, 0, 0, 0, 0, 0, 0, 1610612841, 106, 0, 0, 0, 2684354666, 2684354665, 0, 0, 0, 0, 0, 0, 1610612841, 1610612841, 0, 0, 0, 2684354665, 2684354665, 0, 0, 0, 0, 0, 0, 1610612841, 1610612841, 0, 0, 0, 2684354665, 2684354665, 0, 0, 0, 0, 0, 0, 1610612841, 1610612841, 0, 0, 0, 2684354665, 2684354665, 0, 0, 0, 0, 0, 0, 0, 0, 0, 0, 0, 0, 0, 0, 0, 0, 0, 0, 0, 0, 0, 0, 0, 0, 0, 0, 0, 0, 0],
         "height":11,
         "id":7,
         "name":"wall+",
         "opacity":1,
         "type":"tilelayer",
         "visible":true,
         "width":13,
         "x":0,
         "y":0
        }, 
        {
         "data":[0, 0, 0, 0, 0, 0, 0, 0, 0, 0, 0, 0, 0, 0, 2, 3221225489, 3221225489, 3221225489, 3221225489, 27, 3221225489, 3221225489, 3221225489, 3221225489, 2684354562, 0, 0, 2684354577, 0, 0, 0, 0, 0, 0, 0, 0, 0, 1610612753, 0, 0, 2684354577, 0, 0, 0, 0, 0, 0, 0, 0, 0, 1610612753, 0, 0, 2684354577, 0, 0, 0, 0, 0, 0, 0, 0, 0, 1610612753, 0, 0, 2684354577, 0, 0, 0, 0, 0, 0, 0, 0, 0, 1610612753, 0, 0, 2684354577, 0, 0, 0, 0, 0, 0, 0, 0, 0, 1610612753, 0, 0, 2684354577, 0, 0, 0, 0, 0, 0, 0, 0, 0, 1610612753, 0, 0, 2684354577, 0, 11, 0, 0, 0, 0, 0, 11, 0, 1610612753, 0, 0, 1610612738, 17, 34, 17, 17, 17, 17, 17, 34, 17, 3221225474, 0, 0, 0, 0, 0, 0, 0, 0, 0, 0, 0, 0, 0, 0],
         "height":11,
         "id":2,
         "name":"wall",
         "opacity":1,
         "type":"tilelayer",
         "visible":true,
         "width":13,
         "x":0,
         "y":0
        }, 
        {
         "data":[0, 0, 0, 0, 0, 0, 0, 0, 0, 0, 0, 0, 0, 0, 91, 91, 91, 91, 91, 0, 91, 91, 91, 91, 91, 0, 0, 91, 67, 91, 91, 91, 91, 91, 91, 91, 67, 91, 0, 0, 91, 91, 91, 91, 91, 91, 91, 91, 91, 91, 91, 0, 0, 99, 99, 91, 91, 6, 6, 6, 91, 91, 99, 99, 0, 0, 99, 99, 91, 84, 84, 84, 84, 84, 91, 99, 99, 0, 0, 84, 84, 91, 84, 84, 84, 84, 84, 91, 84, 84, 0, 0, 84, 84, 30, 84, 84, 67, 84, 84, 30, 84, 84, 0, 0, 84, 84, 0, 84, 84, 84, 84, 84, 0, 84, 84, 0, 0, 84, 84, 0, 84, 84, 84, 84, 84, 0, 84, 84, 0, 0, 0, 0, 0, 0, 0, 0, 0, 0, 0, 0, 0, 0],
         "height":11,
         "id":1,
         "name":"block",
         "opacity":1,
         "type":"tilelayer",
         "visible":true,
         "width":13,
         "x":0,
         "y":0
        }, 
        {
         "data":[0, 0, 0, 0, 0, 0, 0, 0, 0, 0, 0, 0, 0, 0, 0, 0, 0, 0, 0, 0, 0, 0, 0, 0, 0, 0, 0, 0, 36, 0, 0, 0, 0, 0, 0, 0, 36, 0, 0, 0, 0, 0, 0, 0, 0, 0, 0, 0, 0, 0, 0, 0, 0, 0, 0, 0, 0, 0, 0, 0, 0, 0, 0, 0, 0, 0, 0, 0, 0, 0, 0, 0, 0, 0, 0, 0, 0, 0, 0, 0, 0, 0, 0, 0, 0, 0, 0, 0, 0, 0, 0, 0, 0, 0, 0, 0, 0, 37, 0, 0, 0, 0, 0, 0, 0, 0, 0, 0, 0, 0, 0, 0, 0, 0, 0, 0, 0, 0, 0, 0, 0, 0, 0, 0, 0, 0, 0, 0, 0, 0, 0, 0, 0, 0, 0, 0, 0, 0, 0, 0, 0, 0, 0],
         "height":11,
         "id":4,
         "name":"cover",
         "opacity":1,
         "type":"tilelayer",
         "visible":true,
         "width":13,
         "x":0,
         "y":0
        }],
 "nextlayerid":10,
 "nextobjectid":1,
 "orientation":"orthogonal",
 "renderorder":"right-down",
 "tiledversion":"1.3.1",
 "tileheight":32,
 "tilesets":[
        {
         "firstgid":1,
         "source":"wall.tsx"
        }, 
        {
         "firstgid":57,
         "source":"block.tsx"
        }, 
        {
         "firstgid":105,
         "source":"wall2.tsx"
        }],
 "tilewidth":32,
 "type":"map",
 "version":1.2,
 "width":13
}