{ "compressionlevel":0,
 "editorsettings":
    {
     "export":
        {
         "target":"."
        }
    },
 "height":13,
 "infinite":false,
 "layers":[
        {
         "data":[0, 0, 0, 0, 0, 0, 0, 0, 0, 0, 0, 0, 0, 0, 0, 0, 0, 0, 0, 0, 0, 0, 0, 0, 0, 0, 0, 0, 0, 0, 0, 0, 0, 0, 0, 0, 0, 0, 0, 0, 0, 0, 0, 0, 0, 0, 0, 0, 0, 0, 0, 0, 0, 0, 0, 0, 0, 0, 0, 0, 0, 0, 0, 0, 0, 0, 0, 0, 0, 0, 0, 0, 0, 0, 0, 0, 0, 0, 28, 3221225484, 3221225484, 0, 0, 0, 12, 12, 12, 0, 0, 3221225484, 3221225484, 3221225484, 0, 0, 0, 12, 12, 12, 0, 0, 3221225484, 3221225484, 3221225484, 0, 0, 0, 12, 12, 12, 0, 0, 3221225484, 3221225484, 3221225484, 0, 0, 0, 12, 12, 12, 0, 0, 0, 0, 3221225484, 0, 0, 0, 12, 0, 0, 0, 0, 0, 0, 0, 0, 0, 0, 0, 0, 0, 0],
         "height":13,
         "id":3,
         "name":"wind",
         "opacity":1,
         "type":"tilelayer",
         "visible":true,
         "width":11,
         "x":0,
         "y":0
        }, 
        {
         "data":[0, 0, 0, 0, 0, 0, 0, 0, 0, 0, 0, 0, 119, 119, 0, 119, 119, 119, 0, 119, 119, 0, 0, 0, 0, 0, 0, 0, 0, 0, 0, 0, 0, 0, 0, 0, 0, 0, 0, 0, 0, 0, 0, 0, 0, 0, 0, 0, 0, 0, 0, 0, 0, 0, 0, 0, 0, 0, 0, 0, 0, 0, 0, 0, 0, 0, 0, 0, 0, 0, 0, 0, 0, 0, 0, 0, 0, 0, 1610612855, 0, 0, 0, 0, 0, 0, 0, 2684354679, 0, 0, 1610612855, 0, 0, 0, 0, 0, 0, 0, 2684354679, 0, 0, 1610612855, 0, 0, 0, 0, 0, 0, 0, 2684354679, 0, 0, 1610612855, 0, 0, 0, 0, 0, 0, 0, 2684354679, 0, 0, 0, 0, 0, 0, 0, 0, 0, 0, 0, 0, 0, 0, 0, 0, 0, 0, 0, 0, 0, 0, 0],
         "height":13,
         "id":9,
         "name":"crt\/clr",
         "opacity":1,
         "type":"tilelayer",
         "visible":true,
         "width":11,
         "x":0,
         "y":0
        }, 
        {
         "data":[0, 0, 0, 0, 0, 0, 0, 0, 0, 0, 0, 0, 0, 0, 0, 0, 0, 0, 0, 0, 0, 0, 0, 0, 0, 0, 0, 0, 0, 0, 0, 0, 0, 0, 0, 0, 0, 63, 64, 0, 0, 0, 0, 0, 0, 79, 80, 0, 71, 72, 0, 0, 79, 80, 0, 0, 87, 88, 0, 0, 63, 64, 0, 87, 88, 0, 0, 95, 96, 0, 0, 71, 72, 0, 95, 96, 0, 0, 0, 0, 0, 0, 0, 0, 0, 0, 0, 0, 0, 79, 80, 0, 0, 63, 64, 0, 79, 80, 0, 0, 87, 88, 0, 0, 71, 72, 0, 87, 88, 0, 0, 95, 96, 0, 63, 64, 0, 0, 95, 96, 0, 0, 0, 0, 0, 71, 72, 0, 0, 0, 0, 0, 0, 0, 0, 0, 0, 0, 0, 0, 0, 0, 0],
         "height":13,
         "id":5,
         "name":"cha",
         "opacity":1,
         "type":"tilelayer",
         "visible":true,
         "width":11,
         "x":0,
         "y":0
        }, 
        {
         "data":[0, 0, 0, 0, 0, 0, 0, 0, 0, 0, 0, 0, 0, 0, 0, 0, 0, 0, 0, 0, 0, 0, 0, 0, 0, 0, 0, 0, 0, 0, 0, 0, 0, 0, 76, 76, 0, 76, 76, 76, 0, 76, 76, 0, 0, 76, 76, 0, 76, 76, 76, 0, 76, 76, 0, 0, 76, 76, 0, 76, 76, 76, 0, 76, 76, 0, 0, 76, 76, 0, 76, 76, 76, 0, 76, 76, 0, 0, 0, 0, 0, 0, 0, 0, 0, 0, 0, 0, 0, 68, 68, 0, 76, 76, 76, 0, 68, 68, 0, 0, 68, 68, 0, 76, 76, 76, 0, 68, 68, 0, 0, 68, 68, 0, 76, 76, 76, 0, 68, 68, 0, 0, 0, 0, 0, 76, 76, 76, 0, 0, 0, 0, 0, 0, 0, 0, 0, 0, 0, 0, 0, 0, 0],
         "height":13,
         "id":6,
         "name":"bottom",
         "opacity":1,
         "type":"tilelayer",
         "visible":true,
         "width":11,
         "x":0,
         "y":0
        }, 
        {
         "data":[0, 0, 0, 0, 0, 0, 0, 0, 0, 0, 0, 0, 0, 0, 0, 0, 0, 0, 0, 0, 0, 0, 0, 0, 0, 0, 0, 0, 0, 0, 0, 0, 0, 0, 86, 0, 0, 0, 0, 0, 0, 0, 86, 0, 0, 86, 0, 0, 0, 0, 0, 0, 0, 86, 0, 0, 86, 0, 0, 0, 0, 0, 0, 0, 86, 0, 0, 3221225534, 2684354646, 2684354646, 62, 0, 1610612798, 2684354646, 2684354646, 2684354622, 0, 0, 0, 0, 0, 86, 0, 86, 0, 0, 0, 0, 0, 0, 0, 0, 86, 0, 86, 0, 0, 0, 0, 0, 0, 0, 0, 86, 0, 86, 0, 0, 0, 0, 0, 0, 0, 0, 86, 0, 86, 0, 0, 0, 0, 0, 0, 0, 0, 3221225566, 0, 3221225566, 0, 0, 0, 0, 0, 0, 0, 0, 0, 0, 0, 0, 0, 0, 0],
         "height":13,
         "id":8,
         "name":"pass",
         "opacity":1,
         "type":"tilelayer",
         "visible":true,
         "width":11,
         "x":0,
         "y":0
        }, 
        {
         "data":[0, 0, 0, 0, 0, 0, 0, 0, 0, 0, 0, 0, 0, 0, 0, 0, 0, 0, 0, 0, 0, 0, 0, 0, 0, 0, 0, 0, 0, 0, 0, 0, 0, 0, 0, 0, 0, 0, 0, 0, 0, 0, 0, 0, 0, 0, 0, 0, 0, 0, 0, 0, 0, 0, 0, 0, 0, 0, 0, 0, 0, 0, 0, 0, 0, 0, 0, 0, 0, 0, 0, 0, 0, 0, 0, 0, 0, 0, 105, 105, 2684354666, 0, 0, 0, 106, 105, 105, 0, 0, 0, 0, 2684354665, 0, 0, 0, 1610612841, 0, 0, 0, 0, 0, 0, 2684354665, 0, 0, 0, 1610612841, 0, 0, 0, 0, 0, 0, 2684354665, 0, 0, 0, 1610612841, 0, 0, 0, 0, 0, 0, 2684354665, 0, 0, 0, 1610612841, 0, 0, 0, 0, 0, 0, 0, 0, 0, 0, 0, 0, 0, 0],
         "height":13,
         "id":7,
         "name":"wall+",
         "opacity":1,
         "type":"tilelayer",
         "visible":true,
         "width":11,
         "x":0,
         "y":0
        }, 
        {
         "data":[0, 0, 0, 0, 0, 0, 0, 0, 0, 0, 0, 0, 2, 2684354562, 0, 2, 1, 2684354562, 0, 2, 2684354562, 0, 0, 1610612737, 0, 1, 0, 0, 0, 1, 0, 2684354561, 0, 0, 1610612737, 0, 33, 0, 0, 0, 33, 0, 2684354561, 0, 0, 1610612737, 0, 0, 0, 0, 0, 0, 0, 2684354561, 0, 0, 1610612737, 0, 33, 0, 0, 0, 33, 0, 2684354561, 0, 0, 1610612737, 0, 0, 0, 0, 0, 0, 0, 2684354561, 0, 0, 1610612737, 0, 0, 0, 0, 0, 0, 0, 2684354561, 0, 0, 1610612737, 0, 0, 0, 0, 0, 0, 0, 2684354561, 0, 0, 1610612737, 0, 0, 0, 0, 0, 0, 0, 2684354561, 0, 0, 1610612738, 3221225473, 0, 0, 0, 0, 0, 3221225473, 3221225474, 0, 0, 0, 0, 1610612738, 3221225473, 3221225473, 3221225473, 3221225474, 0, 0, 0, 0, 0, 0, 0, 0, 0, 0, 0, 0, 0, 0],
         "height":13,
         "id":2,
         "name":"wall",
         "opacity":1,
         "type":"tilelayer",
         "visible":true,
         "width":11,
         "x":0,
         "y":0
        }, 
        {
         "data":[0, 0, 0, 0, 0, 0, 0, 0, 0, 0, 0, 0, 91, 91, 0, 91, 91, 91, 0, 91, 91, 0, 0, 102, 91, 91, 91, 91, 91, 91, 91, 102, 0, 0, 91, 91, 0, 91, 91, 91, 0, 91, 91, 0, 0, 91, 91, 91, 91, 91, 91, 91, 91, 91, 0, 0, 91, 91, 0, 91, 91, 91, 0, 91, 91, 0, 0, 91, 91, 91, 91, 91, 91, 91, 91, 91, 0, 0, 91, 91, 91, 100, 100, 100, 91, 91, 91, 0, 0, 99, 99, 91, 84, 84, 84, 91, 99, 99, 0, 0, 100, 99, 91, 84, 84, 84, 91, 99, 100, 0, 0, 99, 99, 91, 84, 84, 84, 91, 99, 99, 0, 0, 0, 0, 91, 83, 84, 83, 91, 0, 0, 0, 0, 0, 0, 0, 0, 0, 0, 0, 0, 0, 0],
         "height":13,
         "id":1,
         "name":"block",
         "opacity":1,
         "type":"tilelayer",
         "visible":true,
         "width":11,
         "x":0,
         "y":0
        }, 
        {
         "data":[0, 0, 0, 0, 0, 0, 0, 0, 0, 0, 0, 0, 0, 0, 0, 0, 0, 0, 0, 0, 0, 0, 0, 0, 0, 0, 0, 0, 0, 0, 0, 0, 0, 0, 0, 0, 0, 0, 0, 0, 0, 0, 0, 0, 0, 0, 0, 0, 0, 0, 0, 0, 0, 0, 0, 0, 0, 0, 0, 0, 0, 0, 0, 0, 0, 0, 0, 0, 0, 0, 0, 0, 0, 0, 0, 0, 0, 0, 0, 0, 0, 0, 0, 0, 0, 0, 0, 0, 0, 0, 0, 0, 0, 0, 0, 0, 0, 0, 0, 0, 0, 0, 0, 0, 0, 0, 0, 0, 0, 0, 0, 0, 0, 0, 0, 0, 0, 0, 0, 0, 0, 0, 0, 0, 0, 0, 0, 0, 0, 0, 0, 0, 0, 0, 0, 0, 0, 0, 0, 0, 0, 0, 0],
         "height":13,
         "id":4,
         "name":"cover",
         "opacity":1,
         "type":"tilelayer",
         "visible":true,
         "width":11,
         "x":0,
         "y":0
        }],
 "nextlayerid":10,
 "nextobjectid":1,
 "orientation":"orthogonal",
 "renderorder":"right-down",
 "tiledversion":"1.3.4",
 "tileheight":32,
 "tilesets":[
        {
         "firstgid":1,
         "source":"wall.tsx"
        }, 
        {
         "firstgid":57,
         "source":"block.tsx"
        }, 
        {
         "firstgid":105,
         "source":"wall2.tsx"
        }],
 "tilewidth":32,
 "type":"map",
 "version":1.2,
 "width":11
}