{ "compressionlevel":0,
 "height":11,
 "infinite":false,
 "layers":[
        {
         "data":[0, 0, 0, 0, 0, 0, 0, 0, 0, 0, 0, 0, 0, 0, 0, 0, 0, 0, 0, 0, 0, 0, 0, 0, 0, 0, 0, 0, 0, 0, 0, 0, 0, 0, 0, 0, 0, 0, 0, 0, 0, 0, 0, 0, 0, 0, 0, 0, 0, 0, 0, 0, 0, 0, 0, 0, 0, 0, 0, 0, 0, 0, 0, 0, 0, 0, 28, 28, 28, 28, 28, 0, 12, 12, 12, 12, 12, 0, 0, 28, 28, 28, 28, 28, 28, 28, 28, 28, 28, 28, 0, 0, 28, 28, 28, 28, 28, 28, 28, 28, 28, 28, 28, 0, 0, 28, 28, 28, 28, 28, 28, 28, 28, 28, 28, 28, 0, 0, 28, 28, 28, 28, 28, 28, 28, 28, 28, 28, 28, 0, 0, 0, 0, 0, 0, 0, 0, 0, 0, 0, 0, 0, 0],
         "height":11,
         "id":3,
         "name":"wind",
         "opacity":0.9,
         "type":"tilelayer",
         "visible":true,
         "width":13,
         "x":0,
         "y":0
        }, 
        {
         "data":[0, 0, 0, 0, 0, 0, 0, 0, 0, 0, 0, 0, 0, 0, 119, 119, 119, 0, 0, 0, 0, 0, 119, 119, 119, 0, 0, 0, 0, 0, 0, 0, 0, 0, 0, 0, 0, 0, 0, 0, 0, 0, 0, 0, 0, 0, 0, 0, 0, 0, 0, 0, 0, 0, 0, 0, 0, 0, 0, 0, 0, 0, 0, 0, 0, 0, 1610612855, 0, 0, 0, 0, 0, 0, 0, 0, 0, 2684354679, 0, 0, 1610612855, 0, 0, 0, 0, 0, 0, 0, 0, 0, 0, 0, 0, 1610612855, 0, 0, 0, 0, 0, 0, 0, 0, 0, 0, 0, 0, 1610612855, 0, 0, 0, 0, 0, 0, 0, 0, 0, 0, 0, 0, 1610612855, 0, 0, 0, 0, 0, 0, 0, 0, 0, 0, 0, 0, 0, 0, 0, 0, 0, 0, 0, 0, 0, 0, 0, 0],
         "height":11,
         "id":9,
         "name":"crt\/clr",
         "opacity":1,
         "type":"tilelayer",
         "visible":true,
         "width":13,
         "x":0,
         "y":0
        }, 
        {
         "data":[0, 0, 0, 0, 0, 0, 0, 0, 0, 0, 0, 0, 0, 0, 0, 0, 0, 0, 0, 0, 0, 0, 0, 0, 0, 0, 0, 0, 0, 0, 0, 0, 0, 0, 0, 0, 0, 0, 0, 0, 0, 0, 0, 0, 0, 0, 0, 0, 0, 0, 0, 0, 0, 0, 0, 0, 0, 0, 0, 0, 0, 0, 0, 0, 0, 0, 0, 0, 0, 0, 0, 0, 0, 0, 0, 0, 0, 0, 0, 0, 0, 0, 0, 0, 0, 0, 0, 0, 0, 0, 0, 0, 0, 0, 0, 0, 0, 0, 0, 0, 0, 0, 0, 0, 0, 0, 0, 0, 0, 0, 0, 0, 0, 0, 0, 0, 0, 0, 0, 0, 0, 0, 0, 0, 0, 0, 0, 0, 0, 0, 0, 0, 0, 0, 0, 0, 0, 0, 0, 0, 0, 0, 0],
         "height":11,
         "id":5,
         "name":"cha",
         "opacity":1,
         "type":"tilelayer",
         "visible":true,
         "width":13,
         "x":0,
         "y":0
        }, 
        {
         "data":[0, 0, 0, 0, 0, 0, 0, 0, 0, 0, 0, 0, 0, 0, 0, 0, 0, 0, 0, 0, 0, 0, 4, 4, 4, 0, 0, 0, 0, 0, 0, 0, 0, 0, 4, 4, 4, 4, 0, 0, 0, 0, 0, 0, 0, 0, 4, 4, 4, 4, 4, 0, 0, 0, 0, 0, 0, 0, 0, 4, 4, 4, 4, 4, 0, 0, 61, 61, 61, 61, 61, 0, 3221225533, 3221225533, 3221225533, 3221225533, 3221225533, 0, 0, 0, 0, 0, 0, 0, 2684354621, 0, 0, 0, 0, 0, 0, 0, 0, 0, 0, 0, 0, 2684354621, 0, 0, 0, 0, 0, 0, 0, 0, 0, 0, 0, 0, 2684354621, 0, 0, 0, 0, 0, 0, 0, 0, 0, 0, 0, 0, 2684354621, 0, 0, 0, 0, 0, 0, 0, 0, 0, 0, 0, 0, 0, 0, 0, 0, 0, 0, 0],
         "height":11,
         "id":6,
         "name":"bottom",
         "opacity":1,
         "type":"tilelayer",
         "visible":true,
         "width":13,
         "x":0,
         "y":0
        }, 
        {
         "data":[0, 0, 0, 0, 0, 0, 0, 0, 0, 0, 0, 0, 0, 0, 0, 94, 0, 0, 0, 0, 0, 0, 0, 94, 0, 0, 0, 0, 86, 0, 86, 0, 0, 0, 86, 0, 86, 0, 0, 0, 0, 86, 0, 86, 0, 0, 0, 86, 0, 86, 0, 0, 0, 0, 3221225534, 2684354646, 2684354622, 0, 0, 0, 3221225534, 2684354646, 2684354622, 0, 0, 0, 0, 0, 0, 0, 0, 0, 0, 0, 0, 0, 0, 0, 0, 0, 1610612798, 2684354646, 62, 0, 0, 0, 1610612798, 2684354646, 62, 0, 0, 0, 0, 86, 0, 86, 0, 0, 0, 86, 0, 86, 0, 0, 0, 0, 86, 0, 86, 0, 0, 0, 86, 0, 86, 0, 0, 0, 0, 3221225566, 0, 86, 0, 0, 0, 86, 0, 3221225566, 0, 0, 0, 0, 0, 0, 0, 0, 0, 0, 0, 0, 0, 0, 0],
         "height":11,
         "id":8,
         "name":"pass",
         "opacity":1,
         "type":"tilelayer",
         "visible":true,
         "width":13,
         "x":0,
         "y":0
        }, 
        {
         "data":[0, 0, 0, 0, 0, 0, 0, 0, 0, 0, 0, 0, 0, 0, 0, 0, 0, 0, 0, 0, 0, 0, 0, 0, 0, 0, 0, 0, 0, 0, 0, 0, 0, 0, 0, 0, 0, 0, 0, 0, 0, 0, 0, 0, 0, 0, 0, 0, 0, 0, 0, 0, 0, 0, 0, 0, 0, 0, 0, 0, 0, 0, 0, 0, 0, 0, 2684354698, 2684354698, 2684354698, 2684354698, 2684354698, 3221225577, 2684354698, 2684354698, 2684354698, 2684354698, 2684354698, 0, 0, 0, 0, 0, 0, 0, 0, 0, 0, 0, 0, 0, 0, 0, 0, 0, 0, 0, 0, 0, 0, 0, 0, 0, 0, 0, 0, 0, 0, 0, 0, 0, 0, 0, 0, 0, 0, 0, 0, 0, 0, 0, 0, 0, 0, 0, 0, 0, 0, 0, 0, 0, 0, 0, 0, 0, 0, 0, 0, 0, 0, 0, 0, 0, 0],
         "height":11,
         "id":7,
         "name":"wall+",
         "opacity":1,
         "type":"tilelayer",
         "visible":true,
         "width":13,
         "x":0,
         "y":0
        }, 
        {
         "data":[0, 0, 0, 0, 0, 0, 0, 0, 0, 0, 0, 0, 0, 0, 2, 1, 10, 0, 0, 0, 0, 0, 2, 1, 2684354562, 0, 0, 1610612737, 0, 0, 10, 0, 0, 0, 2, 0, 0, 2684354561, 0, 0, 1610612737, 0, 0, 0, 10, 0, 2, 0, 0, 0, 2684354561, 0, 0, 1610612737, 0, 0, 0, 2684354561, 0, 1610612737, 0, 0, 0, 2684354561, 0, 0, 1610612737, 0, 0, 0, 2684354561, 0, 1610612737, 0, 0, 0, 2684354561, 0, 0, 1610612737, 0, 0, 0, 0, 1, 0, 0, 0, 0, 2684354561, 0, 0, 1610612737, 0, 0, 0, 0, 0, 0, 0, 0, 0, 2684354561, 0, 0, 1610612737, 0, 0, 0, 0, 0, 0, 0, 0, 0, 2684354561, 0, 0, 1610612738, 3221225473, 3221225473, 3221225473, 3221225473, 3221225473, 3221225473, 3221225473, 3221225473, 3221225473, 3221225474, 0, 0, 0, 0, 0, 0, 0, 0, 0, 0, 0, 0, 0, 0],
         "height":11,
         "id":2,
         "name":"wall",
         "opacity":1,
         "type":"tilelayer",
         "visible":true,
         "width":13,
         "x":0,
         "y":0
        }, 
        {
         "data":[0, 0, 0, 0, 0, 0, 0, 0, 0, 0, 0, 0, 0, 0, 91, 83, 91, 0, 0, 0, 0, 0, 81, 83, 89, 0, 0, 91, 99, 99, 91, 0, 0, 0, 73, 6, 6, 65, 0, 0, 91, 99, 7, 99, 91, 0, 65, 6, 7, 6, 73, 0, 0, 91, 99, 99, 99, 91, 0, 57, 6, 6, 6, 81, 0, 0, 91, 91, 91, 91, 91, 0, 91, 91, 91, 91, 91, 0, 0, 91, 91, 91, 91, 91, 67, 84, 84, 67, 84, 84, 0, 0, 91, 91, 91, 91, 91, 67, 84, 84, 67, 84, 84, 0, 0, 91, 91, 91, 91, 91, 67, 84, 84, 67, 84, 84, 0, 0, 91, 83, 91, 91, 91, 67, 84, 84, 67, 83, 84, 0, 0, 0, 0, 0, 0, 0, 0, 0, 0, 0, 0, 0, 0],
         "height":11,
         "id":1,
         "name":"block",
         "opacity":1,
         "type":"tilelayer",
         "visible":true,
         "width":13,
         "x":0,
         "y":0
        }, 
        {
         "data":[0, 0, 0, 0, 0, 0, 0, 0, 0, 0, 0, 0, 0, 0, 0, 0, 0, 0, 0, 0, 0, 0, 0, 0, 0, 0, 0, 0, 0, 0, 0, 0, 0, 0, 0, 0, 0, 0, 0, 0, 0, 0, 0, 0, 0, 0, 0, 0, 0, 0, 0, 0, 0, 0, 0, 0, 0, 0, 0, 0, 0, 0, 0, 0, 0, 0, 37, 37, 37, 37, 37, 0, 37, 37, 37, 37, 37, 0, 0, 0, 0, 0, 0, 0, 36, 0, 0, 37, 0, 0, 0, 0, 0, 0, 0, 0, 0, 36, 0, 0, 37, 0, 0, 0, 0, 0, 0, 0, 0, 0, 36, 0, 0, 37, 0, 0, 0, 0, 0, 0, 0, 0, 0, 36, 0, 0, 37, 0, 0, 0, 0, 0, 0, 0, 0, 0, 0, 0, 0, 0, 0, 0, 0],
         "height":11,
         "id":4,
         "name":"cover",
         "opacity":1,
         "type":"tilelayer",
         "visible":true,
         "width":13,
         "x":0,
         "y":0
        }],
 "nextlayerid":10,
 "nextobjectid":1,
 "orientation":"orthogonal",
 "renderorder":"right-down",
 "tiledversion":"1.3.1",
 "tileheight":32,
 "tilesets":[
        {
         "firstgid":1,
         "source":"wall.tsx"
        }, 
        {
         "firstgid":57,
         "source":"block.tsx"
        }, 
        {
         "firstgid":105,
         "source":"wall2.tsx"
        }],
 "tilewidth":32,
 "type":"map",
 "version":1.2,
 "width":13
}