%YAML 1.1
%TAG !u! tag:unity3d.com,2011:
--- !u!21 &2100000
Material:
  serializedVersion: 6
  m_ObjectHideFlags: 0
  m_CorrespondingSourceObject: {fileID: 0}
  m_PrefabInstance: {fileID: 0}
  m_PrefabAsset: {fileID: 0}
  m_Name: RealFire2Purple
  m_Shader: {fileID: 4800000, guid: be473c72471028841adfaee21392dfe3, type: 3}
  m_ShaderKeywords: BILBOARD_ON COLORRAMP_ON DISTORTALPHA_ON DOUBLENOISE_ON PROCEDURALRAMP_ON
    WAVEUV_ON WIND_ON _PROCEDURALRAMP_ON
  m_LightmapFlags: 4
  m_EnableInstancingVariants: 0
  m_DoubleSidedGI: 0
  m_CustomRenderQueue: -1
  stringTagMap: {}
  disabledShaderPasses: []
  m_SavedProperties:
    serializedVersion: 3
    m_TexEnvs:
    - _ColorRamp:
        m_Texture: {fileID: 2800000, guid: 871e8c529dd6d8840ad67aefcfe0062c, type: 3}
        m_Scale: {x: 1, y: 1}
        m_Offset: {x: 0, y: 0}
    - _Distortion:
        m_Texture: {fileID: 2800000, guid: c477a4bab6d417a499e6536c6cb76122, type: 3}
        m_Scale: {x: 1, y: 1}
        m_Offset: {x: 0, y: 0}
    - _FireShape:
        m_Texture: {fileID: 2800000, guid: bb9f97d272857a74883b7e5fb459dc78, type: 3}
        m_Scale: {x: 1, y: 1}
        m_Offset: {x: 0, y: 0}
    - _Gradient:
        m_Texture: {fileID: 2800000, guid: 27fb0431086f21840abceee98dae46a7, type: 3}
        m_Scale: {x: 1, y: 1}
        m_Offset: {x: 0, y: 0}
    - _Mask:
        m_Texture: {fileID: 2800000, guid: f55bf8074e1513b42a0e46ac2ef466d5, type: 3}
        m_Scale: {x: 1, y: 1}
        m_Offset: {x: 0, y: 0}
    - _Noise:
        m_Texture: {fileID: 2800000, guid: 0b6a2c1dd55e3414f91ff1d18195b8c9, type: 3}
        m_Scale: {x: 1.94, y: 0.84}
        m_Offset: {x: 0, y: 0}
    - _Noise2:
        m_Texture: {fileID: 2800000, guid: 9fac523c5baefc24c827e0d6582ee0e2, type: 3}
        m_Scale: {x: 1, y: 1}
        m_Offset: {x: 0, y: 0}
    m_Floats:
    - _AlphaCutoffValue: 0.12
    - _ColRampMax: 0.504
    - _ColRampMin: 0
    - _DistortDebug: 0
    - _DistortMult: 10
    - _DistortNoiseMult: 0.07
    - _DistortPow: 3.43
    - _DistortSpeedX: -0.1
    - _DistortSpeedY: -0.39
    - _FireGlow: 10
    - _FireNoiseMult: 0.1
    - _GradientPow: 0.6
    - _HeightOffset: 0.016
    - _NoisePow: 3.78
    - _NoisePow2: 0.78
    - _NoiseWeight2: 0.282
    - _NoiseXAmount: 4
    - _NoiseXAmount2: 2.06
    - _NoiseXSpeed: 0.2
    - _NoiseXSpeed2: -0.04
    - _NoiseYAmount: 4
    - _NoiseYAmount2: 3.59
    - _NoiseYSpeed: -0.35
    - _NoiseYSpeed2: -0.37
    - _ProceduralRamp: 1
    - _TimingSeed: 0
    - _ToonRamp: 0
    - _ToonThreshhold: 0.5
    - _WaveAmount: 44.6
    - _WaveSpeed: 16.8
    - _WaveStrength: 16.4
    - _WaveX: 0.5
    - _WaveY: 0
    - _WidthOffset: -0.049
    - _WindBend: 10
    - _WindSpeed: 0.15
    - _ZWrite: 0
    m_Colors:
    - _FireColor: {r: 1, g: 0.49056602, b: 0.9745282, a: 1}
    - _RampCol1: {r: 1, g: 0.5471698, b: 0.9889554, a: 1}
    - _RampCol2: {r: 0.4245283, g: 0, b: 0.41075978, a: 1}
