%YAML 1.1
%TAG !u! tag:unity3d.com,2011:
--- !u!21 &2100000
Material:
  serializedVersion: 6
  m_ObjectHideFlags: 0
  m_CorrespondingSourceObject: {fileID: 0}
  m_PrefabInstance: {fileID: 0}
  m_PrefabAsset: {fileID: 0}
  m_Name: ToonFire3Red
  m_Shader: {fileID: 4800000, guid: be473c72471028841adfaee21392dfe3, type: 3}
  m_ShaderKeywords: BILBOARD_ON COLORRAMP_ON DISTORTALPHA_ON DOUBLENOISE_ON GRADIENTMASK_ON
    PROCEDURALRAMP_ON TOONRAMP_ON WAVEUV_ON WIND_ON _PROCEDURALRAMP_ON _TOONRAMP_ON
  m_LightmapFlags: 4
  m_EnableInstancingVariants: 0
  m_DoubleSidedGI: 0
  m_CustomRenderQueue: -1
  stringTagMap: {}
  disabledShaderPasses: []
  m_SavedProperties:
    serializedVersion: 3
    m_TexEnvs:
    - _BumpMap:
        m_Texture: {fileID: 0}
        m_Scale: {x: 1, y: 1}
        m_Offset: {x: 0, y: 0}
    - _ColorRamp:
        m_Texture: {fileID: 2800000, guid: 871e8c529dd6d8840ad67aefcfe0062c, type: 3}
        m_Scale: {x: 1, y: 1}
        m_Offset: {x: 0, y: 0}
    - _DetailAlbedoMap:
        m_Texture: {fileID: 0}
        m_Scale: {x: 1, y: 1}
        m_Offset: {x: 0, y: 0}
    - _DetailMask:
        m_Texture: {fileID: 0}
        m_Scale: {x: 1, y: 1}
        m_Offset: {x: 0, y: 0}
    - _DetailNormalMap:
        m_Texture: {fileID: 0}
        m_Scale: {x: 1, y: 1}
        m_Offset: {x: 0, y: 0}
    - _Distortion:
        m_Texture: {fileID: 2800000, guid: 9fac523c5baefc24c827e0d6582ee0e2, type: 3}
        m_Scale: {x: 0.5, y: 0.5}
        m_Offset: {x: 0, y: 0}
    - _EmissionMap:
        m_Texture: {fileID: 0}
        m_Scale: {x: 1, y: 1}
        m_Offset: {x: 0, y: 0}
    - _FireShape:
        m_Texture: {fileID: 2800000, guid: f55bf8074e1513b42a0e46ac2ef466d5, type: 3}
        m_Scale: {x: 1, y: 1}
        m_Offset: {x: 0, y: 0}
    - _Gradient:
        m_Texture: {fileID: 2800000, guid: 133dd6d552363734ea7a7eff5b2d614c, type: 3}
        m_Scale: {x: 1, y: 1}
        m_Offset: {x: 0, y: 0}
    - _MainTex:
        m_Texture: {fileID: 0}
        m_Scale: {x: 1, y: 1}
        m_Offset: {x: 0, y: 0}
    - _Mask:
        m_Texture: {fileID: 2800000, guid: f55bf8074e1513b42a0e46ac2ef466d5, type: 3}
        m_Scale: {x: 1, y: 1}
        m_Offset: {x: 0, y: 0}
    - _MetallicGlossMap:
        m_Texture: {fileID: 0}
        m_Scale: {x: 1, y: 1}
        m_Offset: {x: 0, y: 0}
    - _Noise:
        m_Texture: {fileID: 2800000, guid: 3181c23acec3c19458ae41edce25ed73, type: 3}
        m_Scale: {x: 0.5, y: 0.5}
        m_Offset: {x: 0, y: 0}
    - _Noise2:
        m_Texture: {fileID: 2800000, guid: 9fac523c5baefc24c827e0d6582ee0e2, type: 3}
        m_Scale: {x: 0.5, y: 0.5}
        m_Offset: {x: 0, y: 0}
    - _OcclusionMap:
        m_Texture: {fileID: 0}
        m_Scale: {x: 1, y: 1}
        m_Offset: {x: 0, y: 0}
    - _ParallaxMap:
        m_Texture: {fileID: 0}
        m_Scale: {x: 1, y: 1}
        m_Offset: {x: 0, y: 0}
    m_Floats:
    - _AlphaCutoffValue: 0.12
    - _BumpScale: 1
    - _ColRampMax: 0.926
    - _ColRampMin: 0
    - _Cutoff: 0.5
    - _DetailNormalMapScale: 1
    - _DistortDebug: 0
    - _DistortMult: 2.84
    - _DistortNoiseMult: 0.025
    - _DistortPow: 2.73
    - _DistortSpeedX: -0.112
    - _DistortSpeedY: -0.473
    - _DstBlend: 0
    - _FireGlow: 5
    - _FireNoiseMult: 0.084
    - _GlossMapScale: 1
    - _Glossiness: 0.5
    - _GlossyReflections: 1
    - _GradientPow: 0.3
    - _HeightOffset: 0.181
    - _Metallic: 0
    - _Mode: 0
    - _NoisePow: 0.67
    - _NoisePow2: 1.63
    - _NoiseWeight2: 0.483
    - _NoiseXAmount: 2.76
    - _NoiseXAmount2: 0.44
    - _NoiseXSpeed: 0
    - _NoiseXSpeed2: -0.11
    - _NoiseYAmount: 3.63
    - _NoiseYAmount2: 3.25
    - _NoiseYSpeed: -0.03
    - _NoiseYSpeed2: -0.25
    - _OcclusionStrength: 1
    - _Parallax: 0.02
    - _ProceduralRamp: 1
    - _SmoothnessTextureChannel: 0
    - _SpecularHighlights: 1
    - _SrcBlend: 1
    - _TimingSeed: 0
    - _ToonRamp: 1
    - _ToonThreshhold: 0.834
    - _UVSec: 0
    - _WaveAmount: 23.4
    - _WaveSpeed: 15.2
    - _WaveStrength: 10.5
    - _WaveX: 0.893
    - _WaveY: 0.732
    - _WidthOffset: -0.038
    - _WindBend: 6.7
    - _WindSpeed: 0.22
    - _ZWrite: 0
    m_Colors:
    - _Color: {r: 1, g: 1, b: 1, a: 1}
    - _EmissionColor: {r: 0, g: 0, b: 0, a: 1}
    - _FireColor: {r: 1, g: 0.4, b: 0, a: 1}
    - _RampCol1: {r: 1, g: 0.9529412, b: 0, a: 1}
    - _RampCol2: {r: 1, g: 0.27058825, b: 0, a: 1}
