%YAML 1.1
%TAG !u! tag:unity3d.com,2011:
--- !u!21 &2100000
Material:
  serializedVersion: 6
  m_ObjectHideFlags: 0
  m_CorrespondingSourceObject: {fileID: 0}
  m_PrefabInstance: {fileID: 0}
  m_PrefabAsset: {fileID: 0}
  m_Name: TorchFire1Red
  m_Shader: {fileID: 4800000, guid: be473c72471028841adfaee21392dfe3, type: 3}
  m_ShaderKeywords: ALPHACUTOFF_ON BILBOARD_ON COLORRAMP_ON DISTORTALPHA_ON DOUBLENOISE_ON
    PROCEDURALRAMP_ON _PROCEDURALRAMP_ON
  m_LightmapFlags: 4
  m_EnableInstancingVariants: 0
  m_DoubleSidedGI: 0
  m_CustomRenderQueue: -1
  stringTagMap: {}
  disabledShaderPasses: []
  m_SavedProperties:
    serializedVersion: 3
    m_TexEnvs:
    - _BumpMap:
        m_Texture: {fileID: 0}
        m_Scale: {x: 1, y: 1}
        m_Offset: {x: 0, y: 0}
    - _ColorRamp:
        m_Texture: {fileID: 2800000, guid: 871e8c529dd6d8840ad67aefcfe0062c, type: 3}
        m_Scale: {x: 1, y: 1}
        m_Offset: {x: 0, y: 0}
    - _DetailAlbedoMap:
        m_Texture: {fileID: 0}
        m_Scale: {x: 1, y: 1}
        m_Offset: {x: 0, y: 0}
    - _DetailMask:
        m_Texture: {fileID: 0}
        m_Scale: {x: 1, y: 1}
        m_Offset: {x: 0, y: 0}
    - _DetailNormalMap:
        m_Texture: {fileID: 0}
        m_Scale: {x: 1, y: 1}
        m_Offset: {x: 0, y: 0}
    - _Distortion:
        m_Texture: {fileID: 2800000, guid: 9fac523c5baefc24c827e0d6582ee0e2, type: 3}
        m_Scale: {x: 1.5, y: 1.12}
        m_Offset: {x: 0, y: 0}
    - _EmissionMap:
        m_Texture: {fileID: 0}
        m_Scale: {x: 1, y: 1}
        m_Offset: {x: 0, y: 0}
    - _FireShape:
        m_Texture: {fileID: 2800000, guid: e83636e74cb5590469073afa2302e7ba, type: 3}
        m_Scale: {x: 1, y: 1}
        m_Offset: {x: 0, y: 0}
    - _Gradient:
        m_Texture: {fileID: 2800000, guid: 27fb0431086f21840abceee98dae46a7, type: 3}
        m_Scale: {x: 1, y: 1}
        m_Offset: {x: 0, y: 0}
    - _MainTex:
        m_Texture: {fileID: 0}
        m_Scale: {x: 1, y: 1}
        m_Offset: {x: 0, y: 0}
    - _Mask:
        m_Texture: {fileID: 2800000, guid: f55bf8074e1513b42a0e46ac2ef466d5, type: 3}
        m_Scale: {x: 1, y: 1}
        m_Offset: {x: 0, y: 0}
    - _MetallicGlossMap:
        m_Texture: {fileID: 0}
        m_Scale: {x: 1, y: 1}
        m_Offset: {x: 0, y: 0}
    - _Noise:
        m_Texture: {fileID: 2800000, guid: 0b6a2c1dd55e3414f91ff1d18195b8c9, type: 3}
        m_Scale: {x: 1, y: 1}
        m_Offset: {x: 0, y: 0}
    - _Noise2:
        m_Texture: {fileID: 2800000, guid: 3181c23acec3c19458ae41edce25ed73, type: 3}
        m_Scale: {x: 1, y: 1}
        m_Offset: {x: 0, y: 0}
    - _OcclusionMap:
        m_Texture: {fileID: 0}
        m_Scale: {x: 1, y: 1}
        m_Offset: {x: 0, y: 0}
    - _ParallaxMap:
        m_Texture: {fileID: 0}
        m_Scale: {x: 1, y: 1}
        m_Offset: {x: 0, y: 0}
    m_Floats:
    - _AlphaCutoffValue: 0.12
    - _BumpScale: 1
    - _ColRampMax: 0.18
    - _ColRampMin: 0
    - _Cutoff: 0.5
    - _DetailNormalMapScale: 1
    - _DistortDebug: 0
    - _DistortMult: 3.72
    - _DistortNoiseMult: 0.17
    - _DistortPow: 2.34
    - _DistortSpeedX: -0.11
    - _DistortSpeedY: -0.42
    - _DstBlend: 0
    - _FireGlow: 9
    - _FireNoiseMult: 0.176
    - _GlossMapScale: 1
    - _Glossiness: 0.5
    - _GlossyReflections: 1
    - _GradientPow: 1
    - _HeightOffset: 0.078
    - _Metallic: 0
    - _Mode: 0
    - _NoisePow: 1.5
    - _NoisePow2: 1.22
    - _NoiseWeight2: 0.553
    - _NoiseXAmount: 2
    - _NoiseXAmount2: 1.58
    - _NoiseXSpeed: 0
    - _NoiseXSpeed2: 0
    - _NoiseYAmount: 1
    - _NoiseYAmount2: 1.83
    - _NoiseYSpeed: -0.35
    - _NoiseYSpeed2: -0.25
    - _OcclusionStrength: 1
    - _Parallax: 0.02
    - _ProceduralRamp: 1
    - _SmoothnessTextureChannel: 0
    - _SpecularHighlights: 1
    - _SrcBlend: 1
    - _TimingSeed: 0
    - _ToonRamp: 0
    - _ToonThreshhold: 0.496
    - _UVSec: 0
    - _WaveAmount: 7
    - _WaveSpeed: 10
    - _WaveStrength: 7.5
    - _WaveX: 0
    - _WaveY: 0.5
    - _WidthOffset: -0.112
    - _WindBend: 4
    - _WindSpeed: 0.5
    - _ZWrite: 1
    m_Colors:
    - _Color: {r: 1, g: 1, b: 1, a: 1}
    - _EmissionColor: {r: 0, g: 0, b: 0, a: 1}
    - _FireColor: {r: 1, g: 0.4, b: 0, a: 1}
    - _RampCol1: {r: 1, g: 0.9, b: 0, a: 1}
    - _RampCol2: {r: 1, g: 0.2, b: 0, a: 1}
