%YAML 1.1
%TAG !u! tag:unity3d.com,2011:
--- !u!114 &11400000
MonoBehaviour:
  m_ObjectHideFlags: 0
  m_CorrespondingSourceObject: {fileID: 0}
  m_PrefabInstance: {fileID: 0}
  m_PrefabAsset: {fileID: 0}
  m_GameObject: {fileID: 0}
  m_Enabled: 1
  m_EditorHideFlags: 0
  m_Script: {fileID: 11500000, guid: a6b194f808b1af6499c93410e504af42, type: 3}
  m_Name: Block_Bomb_4_Square_01_Fire_Up_Atlas
  m_EditorClassIdentifier: 
  atlasFile: {fileID: 4900000, guid: b4c28ee796447e64e8241c9d1df9e8fc, type: 3}
  materials:
  - {fileID: 2100000, guid: af8162d4b9191544199a559a55bef827, type: 2}
