%YAML 1.1
%TAG !u! tag:unity3d.com,2011:
--- !u!221 &22100000
AnimatorOverrideController:
  m_ObjectHideFlags: 0
  m_CorrespondingSourceObject: {fileID: 0}
  m_PrefabInstance: {fileID: 0}
  m_PrefabAsset: {fileID: 0}
  m_Name: TransitionBlack
  m_Controller: {fileID: 9100000, guid: e9b1757a03b3d4448815b446587f7444, type: 2}
  m_Clips:
  - m_OriginalClip: {fileID: 7400000, guid: 556150966e2e643bca8ea41a39803cf0, type: 2}
    m_OverrideClip: {fileID: 7400000, guid: 7f67dde2367b14c7ea8d6b0c9dd7cb94, type: 2}
  - m_OriginalClip: {fileID: 7400000, guid: 22002413e363346c4a5a69cccbd0053e, type: 2}
    m_OverrideClip: {fileID: 7400000, guid: e0cb63e8bddbf412a92559332c534815, type: 2}
  - m_OriginalClip: {fileID: 7400000, guid: 3070f4f3c8bc149f08abff09620fe8c6, type: 2}
    m_OverrideClip: {fileID: 7400000, guid: 4c0f3beccfffa40fbb8d3b9569de28b9, type: 2}
