%YAML 1.1
%TAG !u! tag:unity3d.com,2011:
--- !u!221 &22100000
AnimatorOverrideController:
  m_ObjectHideFlags: 0
  m_CorrespondingSourceObject: {fileID: 0}
  m_PrefabInstance: {fileID: 0}
  m_PrefabAsset: {fileID: 0}
  m_Name: TransitionWhite
  m_Controller: {fileID: 9100000, guid: e9b1757a03b3d4448815b446587f7444, type: 2}
  m_Clips:
  - m_OriginalClip: {fileID: 7400000, guid: 556150966e2e643bca8ea41a39803cf0, type: 2}
    m_OverrideClip: {fileID: 7400000, guid: 682127a08ad4f6140b9eb726c629911b, type: 2}
  - m_OriginalClip: {fileID: 7400000, guid: 22002413e363346c4a5a69cccbd0053e, type: 2}
    m_OverrideClip: {fileID: 7400000, guid: 0f792a10d808ae74bb31784295a5aca4, type: 2}
  - m_OriginalClip: {fileID: 7400000, guid: 3070f4f3c8bc149f08abff09620fe8c6, type: 2}
    m_OverrideClip: {fileID: 7400000, guid: b164f246370ef564795d58f18cae96cc, type: 2}
